[gd_scene load_steps=3 format=3 uid="uid://b3k6gqontbb8j"]

[ext_resource type="Script" path="res://levels/GameCamera.gd" id="1_vyhep"]
[ext_resource type="Texture2D" uid="uid://cru661ikhvmso" path="res://ui/MAP001_1-1.png" id="2_pusl4"]

[node name="Node2D" type="Node2D"]

[node name="Sprite2d" type="Sprite2D" parent="."]
texture = ExtResource("2_pusl4")

[node name="TileMap" type="TileMap" parent="."]
format = 2

[node name="GameCamera" type="Camera2D" parent="."]
current = true
limit_left = -736
limit_top = -552
limit_right = 736
limit_bottom = 552
limit_smoothed = true
editor_draw_limits = true
editor_draw_drag_margin = true
script = ExtResource("1_vyhep")
